%!PS-Adobe-1.0
%%DocumentFonts: Times-Roman Times-Roman
%%Creator: njplot
%%Pages: 1
%%Title: /home/tina/projects/KAP1/trees/phyml-bst1000/not.so.conserved.Gblocks/msa_nt_5prime_mafftl_fasta_l_759bp_phylip_phyml_tree.txt.ph
%%BeginFeature: *PageSize 
a4
%%EndFeature
%%EndComments
/setpacking where {true setpacking} if
1 setlinecap 1 setlinejoin 1 setlinewidth 0 setgray
/basefont /Times-Roman findfont 12 scalefont def
/titlefont /Times-Roman findfont 12 scalefont def
/setclip {40 40 moveto 560 40 lineto 560 810 lineto 40 810 lineto closepath clip newpath} def
/title {titlefont setfont
40 815 moveto (msa_nt_5prime_mafftl_fasta_l_759bp_phylip_phyml_tree.txt.ph   Tue Aug  9 10:30:12 2016
) show (  Page ) show show ( of 1) show
} def
%%EndProlog
%%Page: ? 1
(1) title setclip
0 0 translate
basefont setfont
50 50 translate
0.7 setgray -10 -10 moveto 510 -10 lineto 510 760 lineto -10 760 lineto closepath stroke 0 setgray 
243 13 moveto
(LOX1-4_5pr) show
351 31 moveto
(MOU1-4_5pr) show
350 48 moveto
(RAT1-4_5pr) show
287 66 moveto
(RAB1-4_5pr) show
264 84 moveto
(HUM1-5_5pr) show
265 101 moveto
(MAC1-4_5pr) show
214 102 moveto
(1000) show
211 29 moveto
(1000) show
211 89 moveto
(486) show
269 119 moveto
(BOV1-4_5pr) show
265 137 moveto
(SHE1-4_5pr) show
265 154 moveto
(CAN1-4_5pr) show
259 172 moveto
(HOR1-4_5pr) show
218 118 moveto
(1000) show
218 173 moveto
(651) show
207 49 moveto
(478) show
207 156 moveto
(976) show
193 112 moveto
(669) show
347 190 moveto
(LOX1-2_5pr) show
336 207 moveto
(HOR1-2_5pr) show
387 225 moveto
(CAN1-2_5pr) show
367 243 moveto
(BOV1-2_5pr) show
375 261 moveto
(SHE1-2_5pr) show
295 262 moveto
(1000) show
289 248 moveto
(579) show
281 233 moveto
(532) show
349 278 moveto
(HUM1-3_5pr) show
344 296 moveto
(MAC1-2_5pr) show
279 196 moveto
(167) show
279 297 moveto
(1000) show
365 314 moveto
(RAB1-2_5pr) show
277 237 moveto
(220) show
399 331 moveto
(MOU1-2_5pr) show
404 349 moveto
(RAT1-2_5pr) show
246 270 moveto
(572) show
246 350 moveto
(1000) show
70 48 moveto
(1000) show
70 320 moveto
(1000) show
240 367 moveto
(LOX1-3_5pr) show
267 384 moveto
(BOV1-3_5pr) show
268 402 moveto
(SHE1-3_5pr) show
264 420 moveto
(CAN1-3_5pr) show
252 437 moveto
(HOR1-3_5pr) show
209 383 moveto
(1000) show
209 439 moveto
(537) show
256 455 moveto
(HUM1-1_5pr) show
253 473 moveto
(MAC1-3_5pr) show
295 491 moveto
(RAB1-3_5pr) show
354 508 moveto
(MOU1-3_5pr) show
346 526 moveto
(RAT1-3_5pr) show
207 527 moveto
(1000) show
197 454 moveto
(1000) show
197 514 moveto
(322) show
193 401 moveto
(973) show
193 494 moveto
(213) show
186 457 moveto
(264) show
42 174 moveto
(662) show
42 417 moveto
(1000) show
248 544 moveto
(HUM1-4_5pr) show
249 561 moveto
(MAC1-1_5pr) show
300 579 moveto
(RAB1-1_5pr) show
352 597 moveto
(MOU1-1_5pr) show
365 614 moveto
(RAT1-1_5pr) show
229 616 moveto
(1000) show
267 632 moveto
(HOR1-1_5pr) show
295 650 moveto
(BOV1-1_5pr) show
303 667 moveto
(SHE1-1_5pr) show
425 685 moveto
(LOX1-1_5pr) show
291 703 moveto
(CAN1-1_5pr) show
235 649 moveto
(1000) show
235 704 moveto
(354) show
232 686 moveto
(307) show
223 582 moveto
(273) show
223 664 moveto
(567) show
211 542 moveto
(985) show
211 633 moveto
(406) show
19 442 moveto
(1000) show
323 37 moveto
348 37 lineto stroke
323 55 moveto
346 55 lineto stroke
323 37 moveto
323 55 lineto stroke
249 90 moveto
261 90 lineto stroke
249 108 moveto
262 108 lineto stroke
249 90 moveto
249 108 lineto stroke
214 73 moveto
284 73 lineto stroke
214 99 moveto
249 99 lineto stroke
214 73 moveto
214 99 lineto stroke
211 46 moveto
323 46 lineto stroke
211 86 moveto
214 86 lineto stroke
211 46 moveto
211 86 lineto stroke
255 126 moveto
266 126 lineto stroke
255 143 moveto
262 143 lineto stroke
255 126 moveto
255 143 lineto stroke
220 161 moveto
262 161 lineto stroke
220 179 moveto
256 179 lineto stroke
220 161 moveto
220 179 lineto stroke
218 135 moveto
255 135 lineto stroke
218 170 moveto
220 170 lineto stroke
218 135 moveto
218 170 lineto stroke
207 66 moveto
211 66 lineto stroke
207 152 moveto
218 152 lineto stroke
207 66 moveto
207 152 lineto stroke
193 20 moveto
239 20 lineto stroke
193 109 moveto
207 109 lineto stroke
193 20 moveto
193 109 lineto stroke
353 249 moveto
363 249 lineto stroke
353 267 moveto
372 267 lineto stroke
353 249 moveto
353 267 lineto stroke
295 232 moveto
384 232 lineto stroke
295 258 moveto
353 258 lineto stroke
295 232 moveto
295 258 lineto stroke
289 214 moveto
332 214 lineto stroke
289 245 moveto
295 245 lineto stroke
289 214 moveto
289 245 lineto stroke
281 196 moveto
343 196 lineto stroke
281 230 moveto
289 230 lineto stroke
281 196 moveto
281 230 lineto stroke
333 285 moveto
346 285 lineto stroke
333 303 moveto
340 303 lineto stroke
333 285 moveto
333 303 lineto stroke
279 213 moveto
281 213 lineto stroke
279 294 moveto
333 294 lineto stroke
279 213 moveto
279 294 lineto stroke
277 253 moveto
279 253 lineto stroke
277 320 moveto
362 320 lineto stroke
277 253 moveto
277 320 lineto stroke
374 338 moveto
396 338 lineto stroke
374 356 moveto
401 356 lineto stroke
374 338 moveto
374 356 lineto stroke
246 287 moveto
277 287 lineto stroke
246 347 moveto
374 347 lineto stroke
246 287 moveto
246 347 lineto stroke
70 64 moveto
193 64 lineto stroke
70 317 moveto
246 317 lineto stroke
70 64 moveto
70 317 lineto stroke
257 391 moveto
263 391 lineto stroke
257 409 moveto
264 409 lineto stroke
257 391 moveto
257 409 lineto stroke
213 426 moveto
260 426 lineto stroke
213 444 moveto
249 444 lineto stroke
213 426 moveto
213 444 lineto stroke
209 400 moveto
257 400 lineto stroke
209 435 moveto
213 435 lineto stroke
209 400 moveto
209 435 lineto stroke
237 462 moveto
253 462 lineto stroke
237 479 moveto
250 479 lineto stroke
237 462 moveto
237 479 lineto stroke
315 515 moveto
350 515 lineto stroke
315 533 moveto
342 533 lineto stroke
315 515 moveto
315 533 lineto stroke
207 497 moveto
292 497 lineto stroke
207 524 moveto
315 524 lineto stroke
207 497 moveto
207 524 lineto stroke
197 471 moveto
237 471 lineto stroke
197 510 moveto
207 510 lineto stroke
197 471 moveto
197 510 lineto stroke
193 418 moveto
209 418 lineto stroke
193 491 moveto
197 491 lineto stroke
193 418 moveto
193 491 lineto stroke
186 373 moveto
236 373 lineto stroke
186 454 moveto
193 454 lineto stroke
186 373 moveto
186 454 lineto stroke
42 191 moveto
70 191 lineto stroke
42 414 moveto
186 414 lineto stroke
42 191 moveto
42 414 lineto stroke
232 550 moveto
245 550 lineto stroke
232 568 moveto
245 568 lineto stroke
232 550 moveto
232 568 lineto stroke
331 603 moveto
349 603 lineto stroke
331 621 moveto
362 621 lineto stroke
331 603 moveto
331 621 lineto stroke
229 586 moveto
297 586 lineto stroke
229 612 moveto
331 612 lineto stroke
229 586 moveto
229 612 lineto stroke
285 656 moveto
291 656 lineto stroke
285 674 moveto
300 674 lineto stroke
285 656 moveto
285 674 lineto stroke
241 692 moveto
422 692 lineto stroke
241 709 moveto
287 709 lineto stroke
241 692 moveto
241 709 lineto stroke
235 665 moveto
285 665 lineto stroke
235 701 moveto
241 701 lineto stroke
235 665 moveto
235 701 lineto stroke
232 639 moveto
264 639 lineto stroke
232 683 moveto
235 683 lineto stroke
232 639 moveto
232 683 lineto stroke
223 599 moveto
229 599 lineto stroke
223 661 moveto
232 661 lineto stroke
223 599 moveto
223 661 lineto stroke
211 559 moveto
232 559 lineto stroke
211 630 moveto
223 630 lineto stroke
211 559 moveto
211 630 lineto stroke
16 302 moveto
42 302 lineto stroke
16 594 moveto
211 594 lineto stroke
16 302 moveto
16 594 lineto stroke
435 723 moveto
475 723 lineto stroke
435 716 moveto
435 729 lineto stroke
475 716 moveto
475 729 lineto stroke
448 726 moveto
(0.1) show
showpage
%%Trailer
