%!PS-Adobe-1.0
%%DocumentFonts: Times-Roman Times-Roman
%%Creator: njplot
%%Pages: 1
%%Title: /home/tina/projects/KAP1/new/trees/bootstrap-1000//msa.nt.3prime.mafftl.phy
%%BeginFeature: *PageSize 
a4
%%EndFeature
%%EndComments
/setpacking where {true setpacking} if
1 setlinecap 1 setlinejoin 1 setlinewidth 0 setgray
/basefont /Times-Roman findfont 12 scalefont def
/titlefont /Times-Roman findfont 12 scalefont def
/setclip {40 40 moveto 560 40 lineto 560 810 lineto 40 810 lineto closepath clip newpath} def
/title {titlefont setfont
40 815 moveto (msa.nt.3prime.mafftl.phy   Wed Aug  9 23:14:29 2017
) show (  Page ) show show ( of 1) show
} def
%%EndProlog
%%Page: ? 1
(1) title setclip
0 0 translate
basefont setfont
50 50 translate
0.7 setgray -10 -10 moveto 510 -10 lineto 510 760 lineto -10 760 lineto closepath stroke 0 setgray 
292 8 moveto
(HUM1-4_3pr) show
297 26 moveto
(MAC1-1_3pr) show
354 44 moveto
(RAB1-1_3pr) show
329 62 moveto
(LOX1-1_3pr) show
327 81 moveto
(CAN1-1_3pr) show
300 99 moveto
(HOR1-1_3pr) show
339 117 moveto
(BOV1-1_3pr) show
334 136 moveto
(SHE1-1_3pr) show
281 133 moveto
(973) show
276 119 moveto
(608) show
262 103 moveto
(444) show
256 86 moveto
(154) show
254 11 moveto
(965) show
254 68 moveto
(119) show
320 154 moveto
(MOU1-1_3pr) show
321 172 moveto
(RAT1-1_3pr) show
204 33 moveto
(372) show
204 169 moveto
(992) show
409 191 moveto
(MOU1-2_3pr) show
418 209 moveto
(RAT1-2_3pr) show
349 227 moveto
(LOX1-2_3pr) show
369 245 moveto
(RAB1-2_3pr) show
341 264 moveto
(CAN1-2_3pr) show
375 282 moveto
(BOV1-2_3pr) show
376 300 moveto
(SHE1-2_3pr) show
291 297 moveto
(1000) show
321 319 moveto
(HOR1-2_3pr) show
347 337 moveto
(HUM1-3_3pr) show
344 355 moveto
(MAC1-2_3pr) show
290 352 moveto
(1000) show
284 272 moveto
(380) show
284 338 moveto
(356) show
280 230 moveto
(332) show
280 311 moveto
(270) show
266 194 moveto
(999) show
266 277 moveto
(314) show
279 374 moveto
(LOX1-4_3pr) show
316 392 moveto
(RAB1-4_3pr) show
368 410 moveto
(MOU1-4_3pr) show
377 429 moveto
(RAT1-4_3pr) show
288 447 moveto
(HUM1-5_3pr) show
303 465 moveto
(MAC1-4_3pr) show
247 413 moveto
(993) show
247 462 moveto
(1000) show
245 444 moveto
(383) show
281 483 moveto
(HOR1-4_3pr) show
294 502 moveto
(BOV1-4_3pr) show
310 520 moveto
(SHE1-4_3pr) show
246 517 moveto
(986) show
307 538 moveto
(CAN1-4_3pr) show
245 491 moveto
(476) show
237 409 moveto
(649) show
237 524 moveto
(618) show
226 472 moveto
(326) show
153 229 moveto
(983) show
153 426 moveto
(931) show
256 557 moveto
(HUM1-1_3pr) show
257 575 moveto
(MAC1-3_3pr) show
317 593 moveto
(MOU1-3_3pr) show
336 612 moveto
(RAT1-3_3pr) show
301 630 moveto
(RAB1-3_3pr) show
291 648 moveto
(LOX1-3_3pr) show
272 667 moveto
(CAN1-3_3pr) show
256 685 moveto
(HOR1-3_3pr) show
294 703 moveto
(BOV1-3_3pr) show
292 721 moveto
(SHE1-3_3pr) show
224 718 moveto
(1000) show
222 705 moveto
(585) show
212 689 moveto
(813) show
205 671 moveto
(589) show
201 596 moveto
(996) show
201 654 moveto
(509) show
194 560 moveto
(992) show
194 631 moveto
(240) show
26 322 moveto
(985) show
26 601 moveto
(965) show
14 281 moveto
(999) show
286 12 moveto
290 12 lineto stroke
286 30 moveto
295 30 lineto stroke
286 12 moveto
286 30 lineto stroke
325 121 moveto
337 121 lineto stroke
325 140 moveto
332 140 lineto stroke
325 121 moveto
325 140 lineto stroke
281 103 moveto
298 103 lineto stroke
281 131 moveto
325 131 lineto stroke
281 103 moveto
281 131 lineto stroke
276 85 moveto
325 85 lineto stroke
276 117 moveto
281 117 lineto stroke
276 85 moveto
276 117 lineto stroke
262 66 moveto
327 66 lineto stroke
262 101 moveto
276 101 lineto stroke
262 66 moveto
262 101 lineto stroke
256 48 moveto
352 48 lineto stroke
256 84 moveto
262 84 lineto stroke
256 48 moveto
256 84 lineto stroke
254 21 moveto
286 21 lineto stroke
254 66 moveto
256 66 lineto stroke
254 21 moveto
254 66 lineto stroke
287 158 moveto
318 158 lineto stroke
287 176 moveto
319 176 lineto stroke
287 158 moveto
287 176 lineto stroke
204 43 moveto
254 43 lineto stroke
204 167 moveto
287 167 lineto stroke
204 43 moveto
204 167 lineto stroke
388 195 moveto
407 195 lineto stroke
388 213 moveto
416 213 lineto stroke
388 195 moveto
388 213 lineto stroke
281 231 moveto
347 231 lineto stroke
281 249 moveto
367 249 lineto stroke
281 231 moveto
281 249 lineto stroke
369 286 moveto
373 286 lineto stroke
369 304 moveto
374 304 lineto stroke
369 286 moveto
369 304 lineto stroke
291 268 moveto
339 268 lineto stroke
291 295 moveto
369 295 lineto stroke
291 268 moveto
291 295 lineto stroke
332 341 moveto
345 341 lineto stroke
332 359 moveto
342 359 lineto stroke
332 341 moveto
332 359 lineto stroke
290 323 moveto
319 323 lineto stroke
290 350 moveto
332 350 lineto stroke
290 323 moveto
290 350 lineto stroke
284 282 moveto
291 282 lineto stroke
284 336 moveto
290 336 lineto stroke
284 282 moveto
284 336 lineto stroke
280 240 moveto
281 240 lineto stroke
280 309 moveto
284 309 lineto stroke
280 240 moveto
280 309 lineto stroke
266 204 moveto
388 204 lineto stroke
266 275 moveto
280 275 lineto stroke
266 204 moveto
266 275 lineto stroke
352 414 moveto
366 414 lineto stroke
352 433 moveto
375 433 lineto stroke
352 414 moveto
352 433 lineto stroke
285 451 moveto
286 451 lineto stroke
285 469 moveto
301 469 lineto stroke
285 451 moveto
285 469 lineto stroke
247 423 moveto
352 423 lineto stroke
247 460 moveto
285 460 lineto stroke
247 423 moveto
247 460 lineto stroke
245 396 moveto
314 396 lineto stroke
245 442 moveto
247 442 lineto stroke
245 396 moveto
245 442 lineto stroke
284 506 moveto
292 506 lineto stroke
284 524 moveto
308 524 lineto stroke
284 506 moveto
284 524 lineto stroke
246 487 moveto
279 487 lineto stroke
246 515 moveto
284 515 lineto stroke
246 487 moveto
246 515 lineto stroke
245 501 moveto
246 501 lineto stroke
245 542 moveto
305 542 lineto stroke
245 501 moveto
245 542 lineto stroke
237 419 moveto
245 419 lineto stroke
237 522 moveto
245 522 lineto stroke
237 419 moveto
237 522 lineto stroke
226 378 moveto
277 378 lineto stroke
226 470 moveto
237 470 lineto stroke
226 378 moveto
226 470 lineto stroke
153 239 moveto
266 239 lineto stroke
153 424 moveto
226 424 lineto stroke
153 239 moveto
153 424 lineto stroke
241 561 moveto
254 561 lineto stroke
241 579 moveto
255 579 lineto stroke
241 561 moveto
241 579 lineto stroke
297 597 moveto
315 597 lineto stroke
297 616 moveto
334 616 lineto stroke
297 597 moveto
297 616 lineto stroke
281 707 moveto
292 707 lineto stroke
281 725 moveto
290 725 lineto stroke
281 707 moveto
281 725 lineto stroke
224 689 moveto
254 689 lineto stroke
224 716 moveto
281 716 lineto stroke
224 689 moveto
224 716 lineto stroke
222 671 moveto
270 671 lineto stroke
222 703 moveto
224 703 lineto stroke
222 671 moveto
222 703 lineto stroke
212 652 moveto
289 652 lineto stroke
212 687 moveto
222 687 lineto stroke
212 652 moveto
212 687 lineto stroke
205 634 moveto
299 634 lineto stroke
205 669 moveto
212 669 lineto stroke
205 634 moveto
205 669 lineto stroke
201 606 moveto
297 606 lineto stroke
201 652 moveto
205 652 lineto stroke
201 606 moveto
201 652 lineto stroke
194 570 moveto
241 570 lineto stroke
194 629 moveto
201 629 lineto stroke
194 570 moveto
194 629 lineto stroke
26 332 moveto
153 332 lineto stroke
26 599 moveto
194 599 lineto stroke
26 332 moveto
26 599 lineto stroke
12 105 moveto
204 105 lineto stroke
12 466 moveto
26 466 lineto stroke
12 105 moveto
12 466 lineto stroke
438 733 moveto
475 733 lineto stroke
438 729 moveto
438 737 lineto stroke
475 729 moveto
475 737 lineto stroke
445 735 moveto
(0.1) show
showpage
%%Trailer
