%!PS-Adobe-1.0
%%DocumentFonts: Times-Roman Times-Roman
%%Creator: njplot
%%Pages: 1
%%Title: /home/tina/projects/KAP1/new/trees/bootstrap-1000//msa.nt.5prime.mafftl.phy
%%BeginFeature: *PageSize 
a4
%%EndFeature
%%EndComments
/setpacking where {true setpacking} if
1 setlinecap 1 setlinejoin 1 setlinewidth 0 setgray
/basefont /Times-Roman findfont 12 scalefont def
/titlefont /Times-Roman findfont 12 scalefont def
/setclip {40 40 moveto 560 40 lineto 560 810 lineto 40 810 lineto closepath clip newpath} def
/title {titlefont setfont
40 815 moveto (msa.nt.5prime.mafftl.phy   Wed Aug  9 22:48:29 2017
) show (  Page ) show show ( of 1) show
} def
%%EndProlog
%%Page: ? 1
(1) title setclip
0 0 translate
basefont setfont
50 50 translate
0.7 setgray -10 -10 moveto 510 -10 lineto 510 760 lineto -10 760 lineto closepath stroke 0 setgray 
232 8 moveto
(LOX1-4_5pr) show
236 26 moveto
(HUM1-5_5pr) show
242 44 moveto
(MAC1-4_5pr) show
268 62 moveto
(RAB1-4_5pr) show
362 81 moveto
(MOU1-4_5pr) show
369 99 moveto
(RAT1-4_5pr) show
197 96 moveto
(1000) show
190 29 moveto
(1000) show
190 82 moveto
(486) show
249 117 moveto
(CAN1-4_5pr) show
242 136 moveto
(HOR1-4_5pr) show
258 154 moveto
(BOV1-4_5pr) show
250 172 moveto
(SHE1-4_5pr) show
202 169 moveto
(1000) show
199 155 moveto
(416) show
185 50 moveto
(395) show
185 139 moveto
(923) show
168 100 moveto
(633) show
316 191 moveto
(LOX1-2_5pr) show
322 209 moveto
(HOR1-2_5pr) show
354 227 moveto
(CAN1-2_5pr) show
348 245 moveto
(BOV1-2_5pr) show
355 264 moveto
(SHE1-2_5pr) show
276 261 moveto
(1000) show
269 247 moveto
(522) show
353 282 moveto
(HUM1-3_5pr) show
338 300 moveto
(MAC1-2_5pr) show
358 319 moveto
(RAB1-2_5pr) show
413 337 moveto
(MOU1-2_5pr) show
418 355 moveto
(RAT1-2_5pr) show
270 352 moveto
(1000) show
264 285 moveto
(1000) show
264 338 moveto
(445) show
258 219 moveto
(499) show
258 318 moveto
(544) show
254 274 moveto
(241) show
53 45 moveto
(1000) show
53 235 moveto
(1000) show
232 374 moveto
(LOX1-3_5pr) show
285 392 moveto
(CAN1-3_5pr) show
281 410 moveto
(HOR1-3_5pr) show
302 429 moveto
(BOV1-3_5pr) show
305 447 moveto
(SHE1-3_5pr) show
233 444 moveto
(1000) show
226 430 moveto
(783) show
272 465 moveto
(HUM1-1_5pr) show
263 483 moveto
(MAC1-3_5pr) show
314 502 moveto
(RAB1-3_5pr) show
391 520 moveto
(MOU1-3_5pr) show
378 538 moveto
(RAT1-3_5pr) show
235 535 moveto
(1000) show
213 468 moveto
(1000) show
213 522 moveto
(827) show
207 402 moveto
(924) show
207 501 moveto
(460) show
187 457 moveto
(688) show
33 134 moveto
(519) show
33 419 moveto
(1000) show
303 557 moveto
(LOX1-1_5pr) show
367 575 moveto
(MOU1-1_5pr) show
361 593 moveto
(RAT1-1_5pr) show
288 612 moveto
(CAN1-1_5pr) show
323 630 moveto
(RAB1-1_5pr) show
304 648 moveto
(BOV1-1_5pr) show
314 667 moveto
(SHE1-1_5pr) show
245 663 moveto
(997) show
264 685 moveto
(HOR1-1_5pr) show
288 703 moveto
(HUM1-4_5pr) show
292 721 moveto
(MAC1-1_5pr) show
236 718 moveto
(914) show
235 638 moveto
(324) show
235 705 moveto
(225) show
228 677 moveto
(147) show
220 578 moveto
(1000) show
220 647 moveto
(233) show
197 619 moveto
(349) show
14 431 moveto
(1000) show
216 30 moveto
234 30 lineto stroke
216 48 moveto
240 48 lineto stroke
216 30 moveto
216 48 lineto stroke
338 85 moveto
360 85 lineto stroke
338 103 moveto
367 103 lineto stroke
338 85 moveto
338 103 lineto stroke
197 66 moveto
266 66 lineto stroke
197 94 moveto
338 94 lineto stroke
197 66 moveto
197 94 lineto stroke
190 39 moveto
216 39 lineto stroke
190 80 moveto
197 80 lineto stroke
190 39 moveto
190 80 lineto stroke
239 158 moveto
256 158 lineto stroke
239 176 moveto
248 176 lineto stroke
239 158 moveto
239 176 lineto stroke
202 140 moveto
240 140 lineto stroke
202 167 moveto
239 167 lineto stroke
202 140 moveto
202 167 lineto stroke
199 121 moveto
247 121 lineto stroke
199 153 moveto
202 153 lineto stroke
199 121 moveto
199 153 lineto stroke
185 60 moveto
190 60 lineto stroke
185 137 moveto
199 137 lineto stroke
185 60 moveto
185 137 lineto stroke
168 12 moveto
230 12 lineto stroke
168 98 moveto
185 98 lineto stroke
168 12 moveto
168 98 lineto stroke
333 249 moveto
346 249 lineto stroke
333 268 moveto
353 268 lineto stroke
333 249 moveto
333 268 lineto stroke
276 231 moveto
352 231 lineto stroke
276 259 moveto
333 259 lineto stroke
276 231 moveto
276 259 lineto stroke
269 213 moveto
320 213 lineto stroke
269 245 moveto
276 245 lineto stroke
269 213 moveto
269 245 lineto stroke
332 286 moveto
351 286 lineto stroke
332 304 moveto
336 304 lineto stroke
332 286 moveto
332 304 lineto stroke
386 341 moveto
411 341 lineto stroke
386 359 moveto
416 359 lineto stroke
386 341 moveto
386 359 lineto stroke
270 323 moveto
356 323 lineto stroke
270 350 moveto
386 350 lineto stroke
270 323 moveto
270 350 lineto stroke
264 295 moveto
332 295 lineto stroke
264 336 moveto
270 336 lineto stroke
264 295 moveto
264 336 lineto stroke
258 229 moveto
269 229 lineto stroke
258 316 moveto
264 316 lineto stroke
258 229 moveto
258 316 lineto stroke
254 195 moveto
314 195 lineto stroke
254 272 moveto
258 272 lineto stroke
254 195 moveto
254 272 lineto stroke
53 55 moveto
168 55 lineto stroke
53 233 moveto
254 233 lineto stroke
53 55 moveto
53 233 lineto stroke
296 433 moveto
300 433 lineto stroke
296 451 moveto
303 451 lineto stroke
296 433 moveto
296 451 lineto stroke
233 414 moveto
279 414 lineto stroke
233 442 moveto
296 442 lineto stroke
233 414 moveto
233 442 lineto stroke
226 396 moveto
283 396 lineto stroke
226 428 moveto
233 428 lineto stroke
226 396 moveto
226 428 lineto stroke
250 469 moveto
270 469 lineto stroke
250 487 moveto
261 487 lineto stroke
250 469 moveto
250 487 lineto stroke
346 524 moveto
389 524 lineto stroke
346 542 moveto
376 542 lineto stroke
346 524 moveto
346 542 lineto stroke
235 506 moveto
312 506 lineto stroke
235 533 moveto
346 533 lineto stroke
235 506 moveto
235 533 lineto stroke
213 478 moveto
250 478 lineto stroke
213 520 moveto
235 520 lineto stroke
213 478 moveto
213 520 lineto stroke
207 412 moveto
226 412 lineto stroke
207 499 moveto
213 499 lineto stroke
207 412 moveto
207 499 lineto stroke
187 378 moveto
230 378 lineto stroke
187 455 moveto
207 455 lineto stroke
187 378 moveto
187 455 lineto stroke
33 144 moveto
53 144 lineto stroke
33 417 moveto
187 417 lineto stroke
33 144 moveto
33 417 lineto stroke
336 579 moveto
365 579 lineto stroke
336 597 moveto
359 597 lineto stroke
336 579 moveto
336 597 lineto stroke
296 652 moveto
302 652 lineto stroke
296 671 moveto
312 671 lineto stroke
296 652 moveto
296 671 lineto stroke
245 634 moveto
321 634 lineto stroke
245 661 moveto
296 661 lineto stroke
245 634 moveto
245 661 lineto stroke
271 707 moveto
286 707 lineto stroke
271 725 moveto
290 725 lineto stroke
271 707 moveto
271 725 lineto stroke
236 689 moveto
262 689 lineto stroke
236 716 moveto
271 716 lineto stroke
236 689 moveto
236 716 lineto stroke
235 648 moveto
245 648 lineto stroke
235 703 moveto
236 703 lineto stroke
235 648 moveto
235 703 lineto stroke
228 616 moveto
286 616 lineto stroke
228 675 moveto
235 675 lineto stroke
228 616 moveto
228 675 lineto stroke
220 588 moveto
336 588 lineto stroke
220 645 moveto
228 645 lineto stroke
220 588 moveto
220 645 lineto stroke
197 561 moveto
301 561 lineto stroke
197 617 moveto
220 617 lineto stroke
197 561 moveto
197 617 lineto stroke
12 280 moveto
33 280 lineto stroke
12 589 moveto
197 589 lineto stroke
12 280 moveto
12 589 lineto stroke
424 733 moveto
475 733 lineto stroke
424 729 moveto
424 737 lineto stroke
475 729 moveto
475 737 lineto stroke
438 735 moveto
(0.1) show
showpage
%%Trailer
