%!PS-Adobe-1.0
%%DocumentFonts: Times-Roman Times-Roman
%%Creator: njplot
%%Pages: 1
%%Title: /home/tina/projects/KAP1/trees/phyml-bst1000/nonsynSyn/nonsyn_phylip_phyml_tree.txt.ph
%%BeginFeature: *PageSize 
a4
%%EndFeature
%%EndComments
/setpacking where {true setpacking} if
1 setlinecap 1 setlinejoin 1 setlinewidth 0 setgray
/basefont /Times-Roman findfont 12 scalefont def
/titlefont /Times-Roman findfont 12 scalefont def
/setclip {40 40 moveto 560 40 lineto 560 810 lineto 40 810 lineto closepath clip newpath} def
/title {titlefont setfont
40 815 moveto (nonsyn_phylip_phyml_tree.txt.ph   Thu Jul 28 13:00:35 2016
) show (  Page ) show show ( of 1) show
} def
%%EndProlog
%%Page: ? 1
(1) title setclip
0 0 translate
basefont setfont
50 50 translate
0.7 setgray -10 -10 moveto 510 -10 lineto 510 760 lineto -10 760 lineto closepath stroke 0 setgray 
248 13 moveto
(HOR1-4_CDS) show
218 31 moveto
(HOR1-1_CDS) show
248 48 moveto
(HOR1-3_CDS) show
218 66 moveto
(HOR1-2_CDS) show
215 67 moveto
(143) show
215 54 moveto
(128) show
378 84 moveto
(RAB1-2_CDS) show
295 101 moveto
(RAB1-4_CDS) show
325 119 moveto
(RAB1-1_CDS) show
325 137 moveto
(RAB1-3_CDS) show
292 138 moveto
(727) show
252 125 moveto
(740) show
114 18 moveto
(824) show
114 109 moveto
(965) show
99 154 moveto
(MOU1-2_CDS) show
129 172 moveto
(RAT1-2_CDS) show
417 190 moveto
(LOX1-4_CDS) show
356 207 moveto
(LOX1-3_CDS) show
386 225 moveto
(LOX1-1_CDS) show
418 243 moveto
(LOX1-2_CDS) show
322 189 moveto
(619) show
322 244 moveto
(506) show
318 261 moveto
(RAT1-4_CDS) show
293 278 moveto
(RAT1-3_CDS) show
160 206 moveto
(872) show
160 279 moveto
(489) show
126 253 moveto
(324) show
222 296 moveto
(MOU1-4_CDS) show
159 314 moveto
(MOU1-1_CDS) show
129 331 moveto
(MOU1-3_CDS) show
126 332 moveto
(306) show
160 349 moveto
(RAT1-1_CDS) show
160 367 moveto
(CAN1-1_CDS) show
160 384 moveto
(CAN1-4_CDS) show
160 402 moveto
(CAN1-2_CDS) show
160 420 moveto
(CAN1-3_CDS) show
156 421 moveto
(141) show
156 408 moveto
(186) show
126 392 moveto
(617) show
96 299 moveto
(533) show
96 376 moveto
(658) show
96 197 moveto
(196) show
96 347 moveto
(55) show
96 282 moveto
(67) show
42 54 moveto
(452) show
42 223 moveto
(449) show
232 437 moveto
(BOV1-4_CDS) show
232 455 moveto
(BOV1-2_CDS) show
262 473 moveto
(BOV1-3_CDS) show
232 491 moveto
(SHE1-3_CDS) show
272 508 moveto
(BOV1-1_CDS) show
272 526 moveto
(SHE1-1_CDS) show
302 544 moveto
(SHE1-4_CDS) show
272 561 moveto
(SHE1-2_CDS) show
269 562 moveto
(311) show
249 549 moveto
(624) show
229 534 moveto
(617) show
229 454 moveto
(170) show
229 517 moveto
(124) show
229 496 moveto
(158) show
335 579 moveto
(HUM1-4_CDS) show
236 597 moveto
(MAC1-1_CDS) show
173 614 moveto
(HUM1-1_CDS) show
203 632 moveto
(HUM1-3_CDS) show
265 650 moveto
(HUM1-5_CDS) show
234 667 moveto
(MAC1-3_CDS) show
234 685 moveto
(MAC1-2_CDS) show
234 703 moveto
(MAC1-4_CDS) show
230 704 moveto
(258) show
200 691 moveto
(644) show
170 613 moveto
(151) show
170 675 moveto
(465) show
140 578 moveto
(819) show
140 654 moveto
(379) show
70 451 moveto
(987) show
70 626 moveto
(640) show
19 339 moveto
(584) show
215 55 moveto
245 55 lineto stroke
215 73 moveto
215 73 lineto stroke
215 55 moveto
215 73 lineto stroke
215 37 moveto
215 37 lineto stroke
215 64 moveto
215 64 lineto stroke
215 37 moveto
215 64 lineto stroke
215 20 moveto
245 20 lineto stroke
215 50 moveto
215 50 lineto stroke
215 20 moveto
215 50 lineto stroke
322 126 moveto
322 126 lineto stroke
322 143 moveto
322 143 lineto stroke
322 126 moveto
322 143 lineto stroke
292 108 moveto
292 108 lineto stroke
292 135 moveto
322 135 lineto stroke
292 108 moveto
292 135 lineto stroke
252 90 moveto
374 90 lineto stroke
252 121 moveto
292 121 lineto stroke
252 90 moveto
252 121 lineto stroke
114 35 moveto
215 35 lineto stroke
114 106 moveto
252 106 lineto stroke
114 35 moveto
114 106 lineto stroke
352 196 moveto
413 196 lineto stroke
352 214 moveto
352 214 lineto stroke
352 196 moveto
352 214 lineto stroke
352 232 moveto
382 232 lineto stroke
352 249 moveto
415 249 lineto stroke
352 232 moveto
352 249 lineto stroke
322 205 moveto
352 205 lineto stroke
322 241 moveto
352 241 lineto stroke
322 205 moveto
322 241 lineto stroke
223 267 moveto
315 267 lineto stroke
223 285 moveto
290 285 lineto stroke
223 267 moveto
223 285 lineto stroke
160 223 moveto
322 223 lineto stroke
160 276 moveto
223 276 lineto stroke
160 223 moveto
160 276 lineto stroke
126 179 moveto
126 179 lineto stroke
126 249 moveto
160 249 lineto stroke
126 179 moveto
126 249 lineto stroke
126 320 moveto
156 320 lineto stroke
126 338 moveto
126 338 lineto stroke
126 320 moveto
126 338 lineto stroke
126 303 moveto
219 303 lineto stroke
126 329 moveto
126 329 lineto stroke
126 303 moveto
126 329 lineto stroke
156 409 moveto
156 409 lineto stroke
156 426 moveto
156 426 lineto stroke
156 409 moveto
156 426 lineto stroke
156 391 moveto
156 391 lineto stroke
156 418 moveto
156 418 lineto stroke
156 391 moveto
156 418 lineto stroke
156 373 moveto
156 373 lineto stroke
156 404 moveto
156 404 lineto stroke
156 373 moveto
156 404 lineto stroke
126 356 moveto
156 356 lineto stroke
126 389 moveto
156 389 lineto stroke
126 356 moveto
126 389 lineto stroke
96 316 moveto
126 316 lineto stroke
96 372 moveto
126 372 lineto stroke
96 316 moveto
96 372 lineto stroke
96 214 moveto
126 214 lineto stroke
96 344 moveto
96 344 lineto stroke
96 214 moveto
96 344 lineto stroke
96 161 moveto
96 161 lineto stroke
96 279 moveto
96 279 lineto stroke
96 161 moveto
96 279 lineto stroke
42 70 moveto
114 70 lineto stroke
42 220 moveto
96 220 lineto stroke
42 70 moveto
42 220 lineto stroke
229 462 moveto
229 462 lineto stroke
229 479 moveto
259 479 lineto stroke
229 462 moveto
229 479 lineto stroke
269 550 moveto
298 550 lineto stroke
269 568 moveto
269 568 lineto stroke
269 550 moveto
269 568 lineto stroke
269 533 moveto
269 533 lineto stroke
269 559 moveto
269 559 lineto stroke
269 533 moveto
269 559 lineto stroke
249 515 moveto
269 515 lineto stroke
249 546 moveto
269 546 lineto stroke
249 515 moveto
249 546 lineto stroke
229 497 moveto
229 497 lineto stroke
229 530 moveto
249 530 lineto stroke
229 497 moveto
229 530 lineto stroke
229 471 moveto
229 471 lineto stroke
229 514 moveto
229 514 lineto stroke
229 471 moveto
229 514 lineto stroke
229 444 moveto
229 444 lineto stroke
229 492 moveto
229 492 lineto stroke
229 444 moveto
229 492 lineto stroke
204 586 moveto
332 586 lineto stroke
204 603 moveto
233 603 lineto stroke
204 586 moveto
204 603 lineto stroke
170 621 moveto
170 621 lineto stroke
170 639 moveto
200 639 lineto stroke
170 621 moveto
170 639 lineto stroke
230 692 moveto
230 692 lineto stroke
230 709 moveto
230 709 lineto stroke
230 692 moveto
230 709 lineto stroke
230 674 moveto
230 674 lineto stroke
230 701 moveto
230 701 lineto stroke
230 674 moveto
230 701 lineto stroke
200 656 moveto
262 656 lineto stroke
200 687 moveto
230 687 lineto stroke
200 656 moveto
200 687 lineto stroke
170 630 moveto
170 630 lineto stroke
170 672 moveto
200 672 lineto stroke
170 630 moveto
170 672 lineto stroke
140 594 moveto
204 594 lineto stroke
140 651 moveto
170 651 lineto stroke
140 594 moveto
140 651 lineto stroke
70 468 moveto
229 468 lineto stroke
70 623 moveto
140 623 lineto stroke
70 468 moveto
70 623 lineto stroke
16 145 moveto
42 145 lineto stroke
16 545 moveto
70 545 lineto stroke
16 145 moveto
16 545 lineto stroke
435 723 moveto
475 723 lineto stroke
435 716 moveto
435 729 lineto stroke
475 716 moveto
475 729 lineto stroke
445 726 moveto
(0.01) show
showpage
%%Trailer
